<?xml version="1.0" encoding="utf-8"?>
<!-- Generator: Adobe Illustrator 21.1.0, SVG Export Plug-In . SVG Version: 6.00 Build 0)  -->
<svg version="1.1" id="Layer_1" xmlns="http://www.w3.org/2000/svg" xmlns:xlink="http://www.w3.org/1999/xlink" x="0px" y="0px"
	 viewBox="0 0 76.5 76.4" style="enable-background:new 0 0 76.5 76.4;" xml:space="preserve">
<path d="M0,7.1C2.4,4.7,4.7,2.4,7.1,0c10.4,10.3,20.8,20.7,31.1,31.1C48.6,20.7,59,10.3,69.4,0l7.1,7.1l-31.2,31
	C55.6,48.5,66,58.9,76.4,69.3l-7.1,7.1C58.9,66,48.5,55.6,38.1,45.3C27.9,55.6,17.5,66,7.1,76.4C4.7,74,2.4,71.7,0,69.3
	c10.3-10.4,20.7-20.8,31.1-31.2C20.7,27.9,10.3,17.5,0,7.1z"/>
</svg>
