{
	"man": [
		{
			"Length": 20,
			"SizeContent": {
				"averageSize": {
					"chile": 32,
					"us": 1
				},
				"brands": [
					{
						"name": "adidas",
						"chile": 33,
						"us": 12
					},
					{
						"name": "adidas",
						"chile": 33,
						"us": 12
					},
					{
						"name": "adidas",
						"chile": 33,
						"us": 12
					}
				]
			}
		},
		{
			"Length": 20.2,
			"SizeContent": {
				"averageSize": {
					"chile": 32,
					"us": 1
				},
				"brands": [
					{
						"name": "adidas",
						"chile": 33,
						"us": 12
					},
					{
						"name": "adidas",
						"chile": 33,
						"us": 12
					},
					{
						"name": "adidas",
						"chile": 33,
						"us": 12
					}
				]
			}
		},
		{
			"Length": 20.4,
			"SizeContent": {
				"averageSize": {
					"chile": 32,
					"us": 1
				},
				"brands": [
					{
						"name": "adidas",
						"chile": 33,
						"us": 12
					},
					{
						"name": "adidas",
						"chile": 33,
						"us": 12
					},
					{
						"name": "adidas",
						"chile": 33,
						"us": 12
					}
				]
			}
		},
		{
			"Length": 20.5,
			"SizeContent": {
				"averageSize": {
					"chile": 32,
					"us": 1
				},
				"brands": [
					{
						"name": "adidas",
						"chile": 33,
						"us": 12
					},
					{
						"name": "adidas",
						"chile": 33,
						"us": 12
					},
					{
						"name": "adidas",
						"chile": 33,
						"us": 12
					}
				]
			}
		},
		{
			"Length": 20.6,
			"SizeContent": {
				"averageSize": {
					"chile": 32,
					"us": 1
				},
				"brands": [
					{
						"name": "adidas",
						"chile": 33,
						"us": 12
					},
					{
						"name": "adidas",
						"chile": 33,
						"us": 12
					},
					{
						"name": "adidas",
						"chile": 33,
						"us": 12
					}
				]
			}
		}
	]
}